Tools for Working with Data During Statistical Analysis • cheese
…
      #Apply a function to pairwise combinations of columns
      dish(
        left = c(ExerciseInducedAngina, HeartDisease),
        f = function(y, x) glm(y ~ x, family = "binomial") %>% purrr::pluck("coefficients") %>% tibble::enframe()
      )
  ) %>%
    
    #Bind rows up to a specified depth
    fasten(
      into = c("Outcome", "Predictor"),
      depth = 1
    )
#> $Female
#> # A tibble: 28 x 4
#>    Outcome               Predictor   name                  value
#>    <chr>                 <chr>       <chr>                 <dbl>
#>  1 ExerciseInducedAngina Age         (Intercept)        -1.46   
#>  2 ExerciseInducedAngina Age         x                   0.00416
#>  3 ExerciseInducedAngina ChestPain   (Intercept)       -17.6    
#>  4 ExerciseInducedAngina ChestPain   xAtypical angina   15.5    
#>  5 ExerciseInducedAngina ChestPain   xNon-anginal pain  14.8    
#>  6 ExerciseInducedAngina ChestPain   xAsymptomatic      17.4    
#>  7 ExerciseInducedAngina BP          (Intercept)        -6.47   
#>  8 ExerciseInducedAngina BP          x                   0.0383 
#>  9 ExerciseInducedAngina Cholesterol (Intercept)        -2.06   
#> 10 ExerciseInducedAngina Cholesterol x                   0.00315
#> # … with 18 more rows
#> 
#> $Male
#> # A tibble: 28 x 4
#>    Outcome               Predictor   name                 value
#>    <chr>                 <chr>       <chr>                <dbl>
#>  1 ExerciseInducedAngina Age         (Intercept)       -2.44   
#>  2 ExerciseInducedAngina Age         x                  0.0356 
#>  3 ExerciseInducedAngina ChestPain   (Intercept)       -1.32   
#>  4 ExerciseInducedAngina ChestPain   xAtypical angina  -1.39   
#>  5 ExerciseInducedAngina ChestPain   xNon-anginal pain -0.219  
#>  6 ExerciseInducedAngina ChestPain   xAsymptomatic      1.71   
#>  7 ExerciseInducedAngina BP          (Intercept)        0.0385 
#>  8 ExerciseInducedAngina BP          x                 -0.00424
#>  9 ExerciseInducedAngina Cholesterol (Intercept)       -1.70   
#> 10 ExerciseInducedAngina Cholesterol x                  0.00494
#> # … with 18 more rows
…
