Making cheese • cheese
…
Let’s take a closer look:

#Load the package
require(cheese)

## Loading required package: cheese

Heart disease dataset

This data comes from the UCI Machine Learning Repository, containing a collection of demographic and clinical characteristics from 303 patients. It was subsequently processed and cleaned into a format suitable for analysis–details of which can be found here.

#Look at the data
heart_disease

## # A tibble: 303 x 9
##      Age Sex   ChestPain    BP Cholesterol BloodSugar MaximumHR
##    <dbl> <fct> <fct>     <dbl>       <dbl> <lgl>          <dbl>
##  1    63 Male  Typical …   145         233 TRUE             150
##  2    67 Male  Asymptom…   160         286 FALSE            108
##  3    67 Male  Asymptom…   120         229 FALSE            129
##  4    37 Male  Non-angi…   130         250 FALSE            187
##  5    41 Fema… Atypical…   130         204 FALSE            172
##  6    56 Male  Atypical…   120         236 FALSE            178
##  7    62 Fema… Asymptom…   140         268 FALSE            160
##  8    57 Fema… Asymptom…   120         354 FALSE            163
##  9    63 Male  Asymptom…   130         254 FALSE            147
## 10    53 Male  Asymptom…   140         203 TRUE             155
## # … with 293 more rows, and 2 more variables: ExerciseInducedAngina <fct>,
## #   HeartDisease <fct>
…
Splitting and binding data

divide() is used to easily split up a data frame into a list of subsets. Suppose you want to split the data by sex and heart disease status:

div_dat <-
  heart_disease %>%
    divide(
      Sex,
      HeartDisease
    )
div_dat

## $Female
## $Female$No
## # A tibble: 72 x 7
##      Age ChestPain     BP Cholesterol BloodSugar MaximumHR ExerciseInduced…
##    <dbl> <fct>      <dbl>       <dbl> <lgl>          <dbl> <fct>           
##  1    41 Atypical …   130         204 FALSE            172 No              
##  2    57 Asymptoma…   120         354 FALSE            163 Yes             
##  3    56 Atypical …   140         294 FALSE            153 No              
##  4    48 Non-angin…   130         275 FALSE            139 No              
##  5    58 Typical a…   150         283 TRUE             162 No              
##  6    50 Non-angin…   120         219 FALSE            158 No              
##  7    58 Non-angin…   120         340 FALSE            172 No              
##  8    66 Typical a…   150         226 FALSE            114 No              
##  9    69 Typical a…   140         239 FALSE            151 No              
## 10    71 Atypical …   160         302 FALSE            162 No              
## # … with 62 more rows
## 
## $Female$Yes
## # A tibble: 25 x 7
##      Age ChestPain     BP Cholesterol BloodSugar MaximumHR ExerciseInduced…
##    <dbl> <fct>      <dbl>       <dbl> <lgl>          <dbl> <fct>           
##  1    62 Asymptoma…   140         268 FALSE            160 No              
##  2    65 Asymptoma…   150         225 FALSE            114 No              
##  3    61 Asymptoma…   130         330 FALSE            169 No              
##  4    51 Asymptoma…   130         305 FALSE            142 Yes             
##  5    62 Asymptoma…   160         164 FALSE            145 No              
##  6    60 Asymptoma…   150         258 FALSE            157 No              
##  7    61 Asymptoma…   145         307 FALSE            146 Yes             
##  8    43 Asymptoma…   132         341 TRUE             136 Yes             
##  9    62 Non-angin…   130         263 FALSE             97 No              
## 10    63 Asymptoma…   150         407 FALSE            154 No              
## # … with 15 more rows
## 
## 
## $Male
## $Male$No
## # A tibble: 92 x 7
##      Age ChestPain     BP Cholesterol BloodSugar MaximumHR ExerciseInduced…
##    <dbl> <fct>      <dbl>       <dbl> <lgl>          <dbl> <fct>           
##  1    63 Typical a…   145         233 TRUE             150 No              
##  2    37 Non-angin…   130         250 FALSE            187 No              
##  3    56 Atypical …   120         236 FALSE            178 No              
##  4    57 Asymptoma…   140         192 FALSE            148 No              
##  5    44 Atypical …   120         263 FALSE            173 No              
##  6    52 Non-angin…   172         199 TRUE             162 No              
##  7    57 Non-angin…   150         168 FALSE            174 No              
##  8    54 Asymptoma…   140         239 FALSE            160 No              
##  9    49 Atypical …   130         266 FALSE            171 No              
## 10    64 Typical a…   110         211 FALSE            144 Yes             
## # … with 82 more rows
## 
## $Male$Yes
## # A tibble: 114 x 7
##      Age ChestPain     BP Cholesterol BloodSugar MaximumHR ExerciseInduced…
##    <dbl> <fct>      <dbl>       <dbl> <lgl>          <dbl> <fct>           
##  1    67 Asymptoma…   160         286 FALSE            108 Yes             
##  2    67 Asymptoma…   120         229 FALSE            129 Yes             
##  3    63 Asymptoma…   130         254 FALSE            147 No              
##  4    53 Asymptoma…   140         203 TRUE             155 Yes             
##  5    56 Non-angin…   130         256 TRUE             142 Yes             
##  6    48 Atypical …   110         229 FALSE            168 No              
##  7    58 Atypical …   120         284 FALSE            160 No              
##  8    58 Non-angin…   132         224 FALSE            173 No              
##  9    60 Asymptoma…   130         206 FALSE            132 Yes             
## 10    40 Asymptoma…   110         167 FALSE            114 Yes             
## # … with 104 more rows

The default behavior is to continually split the data in a hierarchical structure based on the order of the input columns, and to remove them from the result. The keep argument can be used to retain the columns in the data frames.

fasten() allows you to take a list structure containing data frames of arbitrary depth, and roll them back up into a single data frame. This is useful when a statistical process is mapped to many subsets, and you want to be able to easily collect the results without repeatedly binding data. You can call the function with the divided data from above:

div_dat %>%
  fasten()

## # A tibble: 303 x 7
##      Age ChestPain     BP Cholesterol BloodSugar MaximumHR ExerciseInduced…
##    <dbl> <fct>      <dbl>       <dbl> <lgl>          <dbl> <fct>           
##  1    41 Atypical …   130         204 FALSE            172 No              
##  2    57 Asymptoma…   120         354 FALSE            163 Yes             
##  3    56 Atypical …   140         294 FALSE            153 No              
##  4    48 Non-angin…   130         275 FALSE            139 No              
##  5    58 Typical a…   150         283 TRUE             162 No              
##  6    50 Non-angin…   120         219 FALSE            158 No              
##  7    58 Non-angin…   120         340 FALSE            172 No              
##  8    66 Typical a…   150         226 FALSE            114 No              
##  9    69 Typical a…   140         239 FALSE            151 No              
## 10    71 Atypical …   160         302 FALSE            162 No              
## # … with 293 more rows

It was binded back to the original number of rows, but it lost the columns it was split by. The into argument can be used to handle this:

div_dat %>%
  fasten(
    into = c("Sex", "HeartDisease")
  )

## # A tibble: 303 x 9
##    Sex   HeartDisease   Age ChestPain    BP Cholesterol BloodSugar
##    <chr> <chr>        <dbl> <fct>     <dbl>       <dbl> <lgl>     
##  1 Fema… No              41 Atypical…   130         204 FALSE     
##  2 Fema… No              57 Asymptom…   120         354 FALSE     
##  3 Fema… No              56 Atypical…   140         294 FALSE     
##  4 Fema… No              48 Non-angi…   130         275 FALSE     
##  5 Fema… No              58 Typical …   150         283 TRUE      
##  6 Fema… No              50 Non-angi…   120         219 FALSE     
##  7 Fema… No              58 Non-angi…   120         340 FALSE     
##  8 Fema… No              66 Typical …   150         226 FALSE     
##  9 Fema… No              69 Typical …   140         239 FALSE     
## 10 Fema… No              71 Atypical…   160         302 FALSE     
## # … with 293 more rows, and 2 more variables: MaximumHR <dbl>,
## #   ExerciseInducedAngina <fct>

The positions of the into values always lineup with the level of the list hierarchy. So, for example, if you don’t care about retaining the heart disease status, you can do this:

div_dat %>%
  fasten(
    into = "Sex"
  )

## # A tibble: 303 x 8
##    Sex     Age ChestPain    BP Cholesterol BloodSugar MaximumHR
##    <chr> <dbl> <fct>     <dbl>       <dbl> <lgl>          <dbl>
##  1 Fema…    41 Atypical…   130         204 FALSE            172
##  2 Fema…    57 Asymptom…   120         354 FALSE            163
##  3 Fema…    56 Atypical…   140         294 FALSE            153
##  4 Fema…    48 Non-angi…   130         275 FALSE            139
##  5 Fema…    58 Typical …   150         283 TRUE             162
##  6 Fema…    50 Non-angi…   120         219 FALSE            158
##  7 Fema…    58 Non-angi…   120         340 FALSE            172
##  8 Fema…    66 Typical …   150         226 FALSE            114
##  9 Fema…    69 Typical …   140         239 FALSE            151
## 10 Fema…    71 Atypical…   160         302 FALSE            162
## # … with 293 more rows, and 1 more variable: ExerciseInducedAngina <fct>

In contrast, if you want to forgo the sex indicator, empty strings will need to be used as placeholders so the names are applied at the correct levels.

div_dat %>%
  fasten(
    into = c("", "HeartDisease")
  )

## # A tibble: 303 x 8
##    HeartDisease   Age ChestPain    BP Cholesterol BloodSugar MaximumHR
##    <chr>        <dbl> <fct>     <dbl>       <dbl> <lgl>          <dbl>
##  1 No              41 Atypical…   130         204 FALSE            172
##  2 No              57 Asymptom…   120         354 FALSE            163
##  3 No              56 Atypical…   140         294 FALSE            153
##  4 No              48 Non-angi…   130         275 FALSE            139
##  5 No              58 Typical …   150         283 TRUE             162
##  6 No              50 Non-angi…   120         219 FALSE            158
##  7 No              58 Non-angi…   120         340 FALSE            172
##  8 No              66 Typical …   150         226 FALSE            114
##  9 No              69 Typical …   140         239 FALSE            151
## 10 No              71 Atypical…   160         302 FALSE            162
## # … with 293 more rows, and 1 more variable: ExerciseInducedAngina <fct>
Obviously, the classes of the split columns are not retained from the original data since the splitting and binding processes are independent.

Adjusting the depth

As shown above, the default behavior for these functions is to split or bind “as much as possible”. However, it can be useful to have control over the shape of the split. This is where the depth argument comes in. Suppose you want the same data frames at the leaves of the list, but only one (1) level deep:

heart_disease %>%
  divide(
    Sex,
    HeartDisease,
    depth = 1
  )

## $`Female|No`
## # A tibble: 72 x 7
##      Age ChestPain     BP Cholesterol BloodSugar MaximumHR ExerciseInduced…
##    <dbl> <fct>      <dbl>       <dbl> <lgl>          <dbl> <fct>           
##  1    41 Atypical …   130         204 FALSE            172 No              
##  2    57 Asymptoma…   120         354 FALSE            163 Yes             
##  3    56 Atypical …   140         294 FALSE            153 No              
##  4    48 Non-angin…   130         275 FALSE            139 No              
##  5    58 Typical a…   150         283 TRUE             162 No              
##  6    50 Non-angin…   120         219 FALSE            158 No              
##  7    58 Non-angin…   120         340 FALSE            172 No              
##  8    66 Typical a…   150         226 FALSE            114 No              
##  9    69 Typical a…   140         239 FALSE            151 No              
## 10    71 Atypical …   160         302 FALSE            162 No              
## # … with 62 more rows
## 
## $`Male|No`
## # A tibble: 92 x 7
##      Age ChestPain     BP Cholesterol BloodSugar MaximumHR ExerciseInduced…
##    <dbl> <fct>      <dbl>       <dbl> <lgl>          <dbl> <fct>           
##  1    63 Typical a…   145         233 TRUE             150 No              
##  2    37 Non-angin…   130         250 FALSE            187 No              
##  3    56 Atypical …   120         236 FALSE            178 No              
##  4    57 Asymptoma…   140         192 FALSE            148 No              
##  5    44 Atypical …   120         263 FALSE            173 No              
##  6    52 Non-angin…   172         199 TRUE             162 No              
##  7    57 Non-angin…   150         168 FALSE            174 No              
##  8    54 Asymptoma…   140         239 FALSE            160 No              
##  9    49 Atypical …   130         266 FALSE            171 No              
## 10    64 Typical a…   110         211 FALSE            144 Yes             
## # … with 82 more rows
## 
## $`Female|Yes`
## # A tibble: 25 x 7
##      Age ChestPain     BP Cholesterol BloodSugar MaximumHR ExerciseInduced…
##    <dbl> <fct>      <dbl>       <dbl> <lgl>          <dbl> <fct>           
##  1    62 Asymptoma…   140         268 FALSE            160 No              
##  2    65 Asymptoma…   150         225 FALSE            114 No              
##  3    61 Asymptoma…   130         330 FALSE            169 No              
##  4    51 Asymptoma…   130         305 FALSE            142 Yes             
##  5    62 Asymptoma…   160         164 FALSE            145 No              
##  6    60 Asymptoma…   150         258 FALSE            157 No              
##  7    61 Asymptoma…   145         307 FALSE            146 Yes             
##  8    43 Asymptoma…   132         341 TRUE             136 Yes             
##  9    62 Non-angin…   130         263 FALSE             97 No              
## 10    63 Asymptoma…   150         407 FALSE            154 No              
## # … with 15 more rows
## 
## $`Male|Yes`
## # A tibble: 114 x 7
##      Age ChestPain     BP Cholesterol BloodSugar MaximumHR ExerciseInduced…
##    <dbl> <fct>      <dbl>       <dbl> <lgl>          <dbl> <fct>           
##  1    67 Asymptoma…   160         286 FALSE            108 Yes             
##  2    67 Asymptoma…   120         229 FALSE            129 Yes             
##  3    63 Asymptoma…   130         254 FALSE            147 No              
##  4    53 Asymptoma…   140         203 TRUE             155 Yes             
##  5    56 Non-angin…   130         256 TRUE             142 Yes             
##  6    48 Atypical …   110         229 FALSE            168 No              
##  7    58 Atypical …   120         284 FALSE            160 No              
##  8    58 Non-angin…   132         224 FALSE            173 No              
##  9    60 Asymptoma…   130         206 FALSE            132 Yes             
## 10    40 Asymptoma…   110         167 FALSE            114 Yes             
## # … with 104 more rows

You now have list with four (4) elements containing the subsets–the names of which are the concatenated (see the sep argument) levels of the split columns. This argument also works when binding data. Going back to the original divided data frame, you may only want to bind the internal lists.

div_dat %>%
  fasten(
    into = "HeartDisease",
    depth = 1
  )

## $Female
## # A tibble: 97 x 8
##    HeartDisease   Age ChestPain    BP Cholesterol BloodSugar MaximumHR
##    <chr>        <dbl> <fct>     <dbl>       <dbl> <lgl>          <dbl>
##  1 No              41 Atypical…   130         204 FALSE            172
##  2 No              57 Asymptom…   120         354 FALSE            163
##  3 No              56 Atypical…   140         294 FALSE            153
##  4 No              48 Non-angi…   130         275 FALSE            139
##  5 No              58 Typical …   150         283 TRUE             162
##  6 No              50 Non-angi…   120         219 FALSE            158
##  7 No              58 Non-angi…   120         340 FALSE            172
##  8 No              66 Typical …   150         226 FALSE            114
##  9 No              69 Typical …   140         239 FALSE            151
## 10 No              71 Atypical…   160         302 FALSE            162
## # … with 87 more rows, and 1 more variable: ExerciseInducedAngina <fct>
## 
## $Male
## # A tibble: 206 x 8
##    HeartDisease   Age ChestPain    BP Cholesterol BloodSugar MaximumHR
##    <chr>        <dbl> <fct>     <dbl>       <dbl> <lgl>          <dbl>
##  1 No              63 Typical …   145         233 TRUE             150
##  2 No              37 Non-angi…   130         250 FALSE            187
##  3 No              56 Atypical…   120         236 FALSE            178
##  4 No              57 Asymptom…   140         192 FALSE            148
##  5 No              44 Atypical…   120         263 FALSE            173
##  6 No              52 Non-angi…   172         199 TRUE             162
##  7 No              57 Non-angi…   150         168 FALSE            174
##  8 No              54 Asymptom…   140         239 FALSE            160
##  9 No              49 Atypical…   130         266 FALSE            171
## 10 No              64 Typical …   110         211 FALSE            144
## # … with 196 more rows, and 1 more variable: ExerciseInducedAngina <fct>

Note that the positions of the into values are directly related to how shallow/deep you want the result to be.

The depth can also be controlled relative to the leaves by using negative integers. This can be useful if it is unclear how deep the list will be (or is). In the example above, suppose you didn’t know how deep the list was, but you knew the heart disease status was the most internal split, and thus wanted to bind it.

div_dat %>%
  fasten(
    into = "HeartDisease",
    depth = -1
  )

## $Female
## # A tibble: 97 x 8
##    HeartDisease   Age ChestPain    BP Cholesterol BloodSugar MaximumHR
##    <chr>        <dbl> <fct>     <dbl>       <dbl> <lgl>          <dbl>
##  1 No              41 Atypical…   130         204 FALSE            172
##  2 No              57 Asymptom…   120         354 FALSE            163
##  3 No              56 Atypical…   140         294 FALSE            153
##  4 No              48 Non-angi…   130         275 FALSE            139
##  5 No              58 Typical …   150         283 TRUE             162
##  6 No              50 Non-angi…   120         219 FALSE            158
##  7 No              58 Non-angi…   120         340 FALSE            172
##  8 No              66 Typical …   150         226 FALSE            114
##  9 No              69 Typical …   140         239 FALSE            151
## 10 No              71 Atypical…   160         302 FALSE            162
## # … with 87 more rows, and 1 more variable: ExerciseInducedAngina <fct>
## 
## $Male
…
