Compute descriptive statistics on columns of a data frame. — descriptives • cheese
…
    A long tibble with columns .variable (for the variable name), .key (for the statistic or attribute), .value (for numeric results), .label (for non-numeric results), and .combo (convenient combination of .value and .label coerced to a character vector). If categorical variables exist, additional columns .level (for the factor levels) and .order (to retain order of the levels).

    Details

    The min, max, median, iqr, mean, sd are automatically computed for numeric data and table, prop.table*100 for categorical data. The sample size, number of missing values, number of nonmissing values, the number of unique values, the class are automatically computed on all columns.

    Examples

require(tidyverse)

#1) Default
heart_disease %>%
    descriptives()
#> # A tibble: 106 x 7
#>    .variable .key      .value .label     .level .order .combo    
#>    <chr>     <chr>      <dbl> <chr>      <chr>   <int> <chr>     
#>  1 Age       length    303    NA         NA         NA 303       
#>  2 Age       missing     0    NA         NA         NA 0         
#>  3 Age       available 303    NA         NA         NA 303       
#>  4 Age       class      NA    numeric    NA         NA numeric   
#>  5 Age       unique     41    NA         NA         NA 41        
#>  6 Age       evaluated  NA    continuous NA         NA continuous
#>  7 Age       mean       54.4  NA         NA         NA 54.44     
#>  8 Age       sd          9.04 NA         NA         NA 9.04      
#>  9 Age       min        29    NA         NA         NA 29        
#> 10 Age       median     56    NA         NA         NA 56        
#> # … with 96 more rows

#2) Allow logicals as categorical
heart_disease %>%
    descriptives(
        categorical_types = c("logical", "factor")
    )
#> # A tibble: 110 x 7
#>    .variable .key      .value .label     .level .order .combo    
#>    <chr>     <chr>      <dbl> <chr>      <chr>   <int> <chr>     
#>  1 Age       length    303    NA         NA         NA 303       
#>  2 Age       missing     0    NA         NA         NA 0         
#>  3 Age       available 303    NA         NA         NA 303       
#>  4 Age       class      NA    numeric    NA         NA numeric   
#>  5 Age       unique     41    NA         NA         NA 41        
#>  6 Age       evaluated  NA    continuous NA         NA continuous
#>  7 Age       mean       54.4  NA         NA         NA 54.44     
#>  8 Age       sd          9.04 NA         NA         NA 9.04      
#>  9 Age       min        29    NA         NA         NA 29        
#> 10 Age       median     56    NA         NA         NA 56        
#> # … with 100 more rows

#3) Only apply "other" functions to numeric types
heart_disease %>%
    descriptives(
        numeric_types = NULL
    )
#> # A tibble: 74 x 7
#>    .variable .key      .value .label  .level .order .combo 
#>    <chr>     <chr>      <dbl> <chr>   <chr>   <int> <chr>  
#>  1 Age       length       303 NA      NA         NA 303    
#>  2 Age       missing        0 NA      NA         NA 0      
#>  3 Age       available    303 NA      NA         NA 303    
#>  4 Age       class         NA numeric NA         NA numeric
#>  5 Age       unique        41 NA      NA         NA 41     
#>  6 Age       evaluated     NA other   NA         NA other  
#>  7 Sex       length       303 NA      NA         NA 303    
#>  8 Sex       missing        0 NA      NA         NA 0      
#>  9 Sex       available    303 NA      NA         NA 303    
#> 10 Sex       class         NA factor  NA         NA factor 
#> # … with 64 more rows

#4) Compute a custom function
heart_disease %>%
    descriptives(
        f_numeric =
            list(
                cv = function(x, na.rm) sd(x, na.rm = na.rm)/mean(x, na.rm = na.rm)
            )
    )
#> # A tibble: 110 x 7
#>    .variable .key      .value .label     .level .order .combo    
#>    <chr>     <chr>      <dbl> <chr>      <chr>   <int> <chr>     
#>  1 Age       length    303    NA         NA         NA 303       
#>  2 Age       missing     0    NA         NA         NA 0         
#>  3 Age       available 303    NA         NA         NA 303       
#>  4 Age       class      NA    numeric    NA         NA numeric   
#>  5 Age       unique     41    NA         NA         NA 41        
#>  6 Age       evaluated  NA    continuous NA         NA continuous
#>  7 Age       mean       54.4  NA         NA         NA 54.44     
#>  8 Age       sd          9.04 NA         NA         NA 9.04      
#>  9 Age       min        29    NA         NA         NA 29        
#> 10 Age       median     56    NA         NA         NA 56        
#> # … with 100 more rows
…
