Dish out a function to combinations of variables — dish • cheese
…
#2) Simple regression of Age and BP on each variable
heart_disease %>%
    dish(
        f =
            function(y, x) {
                mod <- lm(y ~ x)
                tibble(
                    Parameter = names(mod$coef),
                    Estimate = mod$coef
                )
            },
        left = c("Age", "BP"),
        bind = TRUE
    )
#> # A tibble: 32 x 4
#>    .left .right      Parameter         Estimate
#>    <chr> <chr>       <chr>                <dbl>
#>  1 Age   Sex         (Intercept)        55.7   
#>  2 Age   Sex         xMale              -1.89  
#>  3 Age   ChestPain   (Intercept)        55.9   
#>  4 Age   ChestPain   xAtypical angina   -4.51  
#>  5 Age   ChestPain   xNon-anginal pain  -2.17  
#>  6 Age   ChestPain   xAsymptomatic      -0.147 
#>  7 Age   Cholesterol (Intercept)        45.4   
#>  8 Age   Cholesterol x                   0.0365
#>  9 Age   BloodSugar  (Intercept)        54.0   
#> 10 Age   BloodSugar  xTRUE               3.01  
#> # … with 22 more rows
…
