Stratify a data frame, apply a function to each strata, and collect results — stratiply • cheese
…
#Separated strata column
heart_disease %>%
    stratiply(
        strata = c("Sex", "HeartDisease"),
        f = head,
        bind = TRUE
    )
#> # A tibble: 24 x 9
#>    Sex   HeartDisease   Age ChestPain    BP Cholesterol BloodSugar MaximumHR
#>    <chr> <chr>        <dbl> <fct>     <dbl>       <dbl> <lgl>          <dbl>
#>  1 Fema… No              41 Atypical…   130         204 FALSE            172
#>  2 Fema… No              57 Asymptom…   120         354 FALSE            163
#>  3 Fema… No              56 Atypical…   140         294 FALSE            153
#>  4 Fema… No              48 Non-angi…   130         275 FALSE            139
#>  5 Fema… No              58 Typical …   150         283 TRUE             162
#>  6 Fema… No              50 Non-angi…   120         219 FALSE            158
#>  7 Male  No              63 Typical …   145         233 TRUE             150
#>  8 Male  No              37 Non-angi…   130         250 FALSE            187
#>  9 Male  No              56 Atypical…   120         236 FALSE            178
#> 10 Male  No              57 Asymptom…   140         192 FALSE            148
#> # … with 14 more rows, and 1 more variable: ExerciseInducedAngina <fct>
…
